\relax 
\providecommand\hyper@newdestlabel[2]{}
\providecommand\BKM@entry[2]{}
\providecommand*{\memsetcounter}[2]{}
\providecommand\HyperFirstAtBeginDocument{\AtBeginDocument}
\HyperFirstAtBeginDocument{\ifx\hyper@anchor\@undefined
\global\let\oldcontentsline\contentsline
\gdef\contentsline#1#2#3#4{\oldcontentsline{#1}{#2}{#3}}
\global\let\oldnewlabel\newlabel
\gdef\newlabel#1#2{\newlabelxx{#1}#2}
\gdef\newlabelxx#1#2#3#4#5#6{\oldnewlabel{#1}{{#2}{#3}}}
\AtEndDocument{\ifx\hyper@anchor\@undefined
\let\contentsline\oldcontentsline
\let\newlabel\oldnewlabel
\fi}
\fi}
\global\let\hyper@last\relax 
\gdef\HyperFirstAtBeginDocument#1{#1}
\providecommand\HyField@AuxAddToFields[1]{}
\providecommand\HyField@AuxAddToCoFields[2]{}
\catcode `"\active 
\citation{abnt-url-package=url}
\@writefile{toc}{\changetocdepth  {4}}
\providecommand \oddpage@label [2]{}
\select@language{brazil}
\@writefile{toc}{\select@language{brazil}}
\@writefile{lof}{\select@language{brazil}}
\@writefile{lot}{\select@language{brazil}}
\BKM@entry{id=1,dest={6368617074657262312E30},srcline={281}}{466F6C6861206465206170726F76615C3334375C3334336F}
\BKM@entry{id=2,dest={6368617074657262322E30},srcline={400}}{466F6C686120646520726F73746F}
\BKM@entry{id=3,dest={6368617074657262332E30},srcline={408}}{446564696361745C333633726961}
\BKM@entry{id=4,dest={6368617074657262352E30},srcline={420}}{41677261646563696D656E746F73}
\@writefile{toc}{\setlength  {\cftchapterindent }{\cftlastnumwidth } \setlength  {\cftchapternumwidth }{2em}}
\BKM@entry{id=5,dest={6368617074657262362E30},srcline={438}}{45705C3335356772616665}
\BKM@entry{id=6,dest={6C6F662E30},srcline={503}}{4C6973746120646520696C75737472615C3334375C3336356573}
\citation{100car}
\citation{100car}
\citation{howdriving}
\citation{howdriving}
\citation{obdArtigo}
\citation{obdArtigo}
\citation{obdArtigo}
\citation{cobli}
\citation{cobli}
\citation{cobli}
\citation{raspImagem}
\citation{raspPinos}
\citation{python}
\citation{bluetoothImagem}
\citation{rfcomm}
\citation{rfcomm}
\@writefile{toc}{\setlength  {\cftchapterindent }{\cftlastnumwidth } \setlength  {\cftchapternumwidth }{2em}}
\citation{versoesAndroid}
\BKM@entry{id=7,dest={73656374696F6E2A2E37},srcline={508}}{4C6973746120646520746162656C6173}
\citation{100car}
\BKM@entry{id=8,dest={6368617074657262382E30},srcline={522}}{4C69737461206465206162726576696174757261732065207369676C6173}
\@writefile{toc}{\setlength  {\cftchapterindent }{\cftlastnumwidth } \setlength  {\cftchapternumwidth }{2em}}
\@writefile{toc}{\contentsline {chapter}{Lista de tabelas}{8}{section*.7}}
\@writefile{toc}{\setlength  {\cftchapterindent }{\cftlastnumwidth } \setlength  {\cftchapternumwidth }{2em}}
\BKM@entry{id=9,dest={746F632E30},srcline={543}}{53756D5C33343172696F}
\@writefile{toc}{\setlength  {\cftchapterindent }{\cftlastnumwidth } \setlength  {\cftchapternumwidth }{2em}}
\BKM@entry{id=10,dest={636861707465722E31},srcline={1}}{496E74726F64755C3334375C3334336F}
\BKM@entry{id=11,dest={73656374696F6E2E312E31},srcline={4}}{4F626A657469766F}
\BKM@entry{id=12,dest={73656374696F6E2E312E32},srcline={11}}{4D6F746976615C3334375C3334336F}
\@writefile{toc}{\setlength  {\cftchapterindent }{0em} \setlength  {\cftchapternumwidth }{\cftlastnumwidth }}
\@writefile{toc}{\contentsline {chapter}{\chapternumberline {1}\MakeTextUppercase  {Introdu\IeC {\c c}\IeC {\~a}o}}{13}{chapter.1}}
\newlabel{chap:intro}{{\M@TitleReference {1}{\MakeTextUppercase  {Introdu\IeC {\c c}\IeC {\~a}o}}}{13}{Introdução}{chapter.1}{}}
\@writefile{toc}{\contentsline {section}{\numberline {1.1}Objetivo}{13}{section.1.1}}
\newlabel{sec:objetivo}{{\M@TitleReference {1.1}{Objetivo}}{13}{Objetivo}{section.1.1}{}}
\@writefile{toc}{\contentsline {section}{\numberline {1.2}Motiva\IeC {\c c}\IeC {\~a}o}{13}{section.1.2}}
\newlabel{sec:motivacao}{{\M@TitleReference {1.2}{Motiva\IeC {\c c}\IeC {\~a}o}}{13}{Motivação}{section.1.2}{}}
\BKM@entry{id=13,dest={73656374696F6E2E312E33},srcline={25}}{4F7267616E697A615C3334375C3334336F20646F20446F63756D656E746F}
\BKM@entry{id=14,dest={73656374696F6E2E312E34},srcline={50}}{5265706F7369745C33363372696F206F6E6C696E65}
\@writefile{toc}{\contentsline {section}{\numberline {1.3}Organiza\IeC {\c c}\IeC {\~a}o do Documento}{14}{section.1.3}}
\newlabel{sec:organizacao}{{\M@TitleReference {1.3}{Organiza\IeC {\c c}\IeC {\~a}o do Documento}}{14}{Organização do Documento}{section.1.3}{}}
\@writefile{toc}{\contentsline {section}{\numberline {1.4}Reposit\IeC {\'o}rio online}{14}{section.1.4}}
\BKM@entry{id=15,dest={636861707465722E32},srcline={1}}{41626F72646167656D20646F2050726F6A65746F206520496465696173}
\BKM@entry{id=16,dest={73656374696F6E2E322E31},srcline={6}}{49646569617320696E696369616973206520616C7465726E61746976617320646F2070726F6A65746F}
\@writefile{toc}{\setlength  {\cftchapterindent }{0em} \setlength  {\cftchapternumwidth }{\cftlastnumwidth }}
\@writefile{toc}{\contentsline {chapter}{\chapternumberline {2}\MakeTextUppercase  {Abordagem do Projeto e Ideias}}{15}{chapter.2}}
\newlabel{chap:abordagem}{{\M@TitleReference {2}{\MakeTextUppercase  {Abordagem do Projeto e Ideias}}}{15}{Abordagem do Projeto e Ideias}{chapter.2}{}}
\@writefile{toc}{\contentsline {section}{\numberline {2.1}Ideias iniciais e alternativas do projeto}{15}{section.2.1}}
\newlabel{sec:ideias-iniciais}{{\M@TitleReference {2.1}{Ideias iniciais e alternativas do projeto}}{15}{Ideias iniciais e alternativas do projeto}{section.2.1}{}}
\@writefile{lof}{\contentsline {figure}{\numberline {1}{\ignorespaces Esquema da ideia inicial.}}{16}{figure.2.1}}
\newlabel{fig:ideiainicial}{{\M@TitleReference {1}{Esquema da ideia inicial.}}{16}{Esquema da ideia inicial}{figure.2.1}{}}
\BKM@entry{id=17,dest={73656374696F6E2E322E32},srcline={85}}{4964656961206573636F6C686964613A2061626F72646167656D20636F6D20736D61727470686F6E65206520686172647761726520656D6261726361646F}
\citation{howdriving}
\@writefile{lof}{\contentsline {figure}{\numberline {2}{\ignorespaces Quecklink GV500.}}{17}{figure.2.2}}
\newlabel{fig:quecklinkgv500}{{\M@TitleReference {2}{Quecklink GV500.}}{17}{Quecklink GV500}{figure.2.2}{}}
\@writefile{lof}{\contentsline {figure}{\numberline {3}{\ignorespaces ELM327/USB + Ardu\IeC {\'\i }no.}}{17}{figure.2.3}}
\newlabel{fig:elm327arduino}{{\M@TitleReference {3}{ELM327/USB + Ardu\IeC {\'\i }no.}}{17}{ELM327/USB + Arduíno}{figure.2.3}{}}
\@writefile{lof}{\contentsline {figure}{\numberline {4}{\ignorespaces ELM327/Bluetooth + Celular.}}{17}{figure.2.4}}
\newlabel{fig:elm327celular}{{\M@TitleReference {4}{ELM327/Bluetooth + Celular.}}{17}{ELM327/Bluetooth + Celular}{figure.2.4}{}}
\@writefile{toc}{\contentsline {section}{\numberline {2.2}Ideia escolhida: abordagem com smartphone e hardware embarcado}{18}{section.2.2}}
\newlabel{sec:ideia-escolhida}{{\M@TitleReference {2.2}{Ideia escolhida: abordagem com smartphone e hardware embarcado}}{18}{Ideia escolhida: abordagem com smartphone e hardware embarcado}{section.2.2}{}}
\BKM@entry{id=18,dest={636861707465722E33},srcline={1}}{52657669735C3334336F204269626C696F67725C33343166696361}
\BKM@entry{id=19,dest={73656374696F6E2E332E31},srcline={6}}{5468652031303020436172204E61747572616C69737469632044726976696E67205374756479}
\citation{100car}
\citation{100car}
\citation{100car}
\citation{100car}
\citation{100car}
\@writefile{toc}{\setlength  {\cftchapterindent }{0em} \setlength  {\cftchapternumwidth }{\cftlastnumwidth }}
\@writefile{toc}{\contentsline {chapter}{\chapternumberline {3}\MakeTextUppercase  {Revis\IeC {\~a}o Bibliogr\IeC {\'a}fica}}{19}{chapter.3}}
\newlabel{chap:rev-bibliografia}{{\M@TitleReference {3}{\MakeTextUppercase  {Revis\IeC {\~a}o Bibliogr\IeC {\'a}fica}}}{19}{Revisão Bibliográfica}{chapter.3}{}}
\@writefile{toc}{\contentsline {section}{\numberline {3.1}The 100 Car Naturalistic Driving Study}{19}{section.3.1}}
\@writefile{lof}{\contentsline {figure}{\numberline {5}{\ignorespaces Centro de coleta de Dados Instalado no porta Malas do Carro \cite  {100car}}}{19}{figure.3.5}}
\newlabel{fig:coleta100carros}{{\M@TitleReference {5}{Centro de coleta de Dados Instalado no porta Malas do Carro \cite  {100car}}}{19}{Centro de coleta de Dados Instalado no porta Malas do Carro \cite {100car}}{figure.3.5}{}}
\citation{100car}
\citation{100car}
\@writefile{lot}{\contentsline {table}{\numberline {1}{\ignorespaces Tabela com a Distribui\IeC {\c c}\IeC {\~a}o dos Motoristas Analisados no Estudo \cite  {100car}}}{20}{table.3.1}}
\@writefile{lof}{\contentsline {figure}{\numberline {6}{\ignorespaces Antena do Radar Doppler Instalado na parte Traseira do Carro \cite  {100car}}}{20}{figure.3.6}}
\newlabel{fig:radar100Carros}{{\M@TitleReference {6}{Antena do Radar Doppler Instalado na parte Traseira do Carro \cite  {100car}}}{20}{Antena do Radar Doppler Instalado na parte Traseira do Carro \cite {100car}}{figure.3.6}{}}
\BKM@entry{id=20,dest={73656374696F6E2E332E32},srcline={74}}{486F772773204D792044726976696E67}
\citation{howdriving}
\citation{howdriving}
\citation{howdriving}
\citation{howdriving}
\citation{howdriving}
\@writefile{toc}{\contentsline {section}{\numberline {3.2}How's My Driving}{21}{section.3.2}}
\@writefile{lof}{\contentsline {figure}{\numberline {7}{\ignorespaces Interface de Usu\IeC {\'a}rio do projeto How's my Driving \cite  {howdriving} }}{21}{figure.3.7}}
\newlabel{fig:interfaceHow}{{\M@TitleReference {7}{Interface de Usu\IeC {\'a}rio do projeto How's my Driving \cite  {howdriving} }}{21}{Interface de Usuário do projeto How's my Driving \cite {howdriving} }{figure.3.7}{}}
\BKM@entry{id=21,dest={73656374696F6E2E332E33},srcline={102}}{447269766572204576616C756174696F6E2053797374656D205573696E67204D6F62696C652050686F6E6520616E64204F42442D49492053797374656D}
\@writefile{lof}{\contentsline {figure}{\numberline {8}{\ignorespaces Segunda Itera\IeC {\c c}\IeC {\~a}o da Interface de Usu\IeC {\'a}rio do projeto How's my Driving \cite  {howdriving}}}{22}{figure.3.8}}
\newlabel{fig:segundainterfaceHow}{{\M@TitleReference {8}{Segunda Itera\IeC {\c c}\IeC {\~a}o da Interface de Usu\IeC {\'a}rio do projeto How's my Driving \cite  {howdriving}}}{22}{Segunda Iteração da Interface de Usuário do projeto How's my Driving \cite {howdriving}}{figure.3.8}{}}
\@writefile{toc}{\contentsline {section}{\numberline {3.3}Driver Evaluation System Using Mobile Phone and OBD-II System}{22}{section.3.3}}
\citation{obdArtigo}
\citation{obdArtigo}
\@writefile{lof}{\contentsline {figure}{\numberline {9}{\ignorespaces Algoritmo para C\IeC {\'a}lculo de Efici\IeC {\^e}ncia do Uso de Combust\IeC {\'\i }vel no Artigo \cite  {obdArtigo}}}{23}{figure.3.9}}
\newlabel{fig:eficienciaCombustivel}{{\M@TitleReference {9}{Algoritmo para C\IeC {\'a}lculo de Efici\IeC {\^e}ncia do Uso de Combust\IeC {\'\i }vel no Artigo \cite  {obdArtigo}}}{23}{Algoritmo para Cálculo de Eficiência do Uso de Combustível no Artigo \cite {obdArtigo}}{figure.3.9}{}}
\citation{obdArtigo}
\citation{obdArtigo}
\citation{obdArtigo}
\citation{obdArtigo}
\@writefile{lof}{\contentsline {figure}{\numberline {10}{\ignorespaces Telas de aplicativo DES Desenvolvido pela equipe do Artigo \cite  {obdArtigo}}}{24}{figure.3.10}}
\newlabel{fig:desScreens}{{\M@TitleReference {10}{Telas de aplicativo DES Desenvolvido pela equipe do Artigo \cite  {obdArtigo}}}{24}{Telas de aplicativo DES Desenvolvido pela equipe do Artigo \cite {obdArtigo}}{figure.3.10}{}}
\BKM@entry{id=22,dest={73656374696F6E2E332E34},srcline={151}}{436F626C69}
\citation{cobli}
\citation{cobli}
\@writefile{lof}{\contentsline {figure}{\numberline {11}{\ignorespaces Telas de aplicativo DES Mostrando a Pontua\IeC {\c c}\IeC {\~a}o e o Gr\IeC {\'a}fico em Rela\IeC {\c c}\IeC {\~a}o a uma Vari\IeC {\'a}vel \cite  {obdArtigo}}}{25}{figure.3.11}}
\newlabel{fig:desScreens2}{{\M@TitleReference {11}{Telas de aplicativo DES Mostrando a Pontua\IeC {\c c}\IeC {\~a}o e o Gr\IeC {\'a}fico em Rela\IeC {\c c}\IeC {\~a}o a uma Vari\IeC {\'a}vel \cite  {obdArtigo}}}{25}{Telas de aplicativo DES Mostrando a Pontuação e o Gráfico em Relação a uma Variável \cite {obdArtigo}}{figure.3.11}{}}
\@writefile{toc}{\contentsline {section}{\numberline {3.4}Cobli}{25}{section.3.4}}
\citation{cobli}
\citation{cobli}
\@writefile{lof}{\contentsline {figure}{\numberline {12}{\ignorespaces Interface Gr\IeC {\'a}fica do Aplicativo Cobli registrando uma Viagem \cite  {cobli}}}{26}{figure.3.12}}
\newlabel{fig:coblieApp}{{\M@TitleReference {12}{Interface Gr\IeC {\'a}fica do Aplicativo Cobli registrando uma Viagem \cite  {cobli}}}{26}{Interface Gráfica do Aplicativo Cobli registrando uma Viagem \cite {cobli}}{figure.3.12}{}}
\citation{cobli}
\citation{cobli}
\@writefile{lof}{\contentsline {figure}{\numberline {13}{\ignorespaces Rastreador Solar Cobli \cite  {cobli}}}{27}{figure.3.13}}
\newlabel{fig:cobliRastreador}{{\M@TitleReference {13}{Rastreador Solar Cobli \cite  {cobli}}}{27}{Rastreador Solar Cobli \cite {cobli}}{figure.3.13}{}}
\@writefile{lof}{\contentsline {figure}{\numberline {14}{\ignorespaces Conector OBD Cobli \cite  {cobli}}}{27}{figure.3.14}}
\newlabel{fig:cobliConectorObd}{{\M@TitleReference {14}{Conector OBD Cobli \cite  {cobli}}}{27}{Conector OBD Cobli \cite {cobli}}{figure.3.14}{}}
\BKM@entry{id=23,dest={636861707465722E34},srcline={1}}{457370656369666963615C3334375C3334336F}
\BKM@entry{id=24,dest={73656374696F6E2E342E31},srcline={1}}{5669735C3334336F20456D70726573617269616C}
\BKM@entry{id=25,dest={73756273656374696F6E2E342E312E31},srcline={5}}{4D6F6E6574697A615C3334375C3334336F20646F2070726F6A65746F}
\@writefile{toc}{\setlength  {\cftchapterindent }{0em} \setlength  {\cftchapternumwidth }{\cftlastnumwidth }}
\@writefile{toc}{\contentsline {chapter}{\chapternumberline {4}\MakeTextUppercase  {Especifica\IeC {\c c}\IeC {\~a}o}}{28}{chapter.4}}
\newlabel{chap:specs}{{\M@TitleReference {4}{\MakeTextUppercase  {Especifica\IeC {\c c}\IeC {\~a}o}}}{28}{Especificação}{chapter.4}{}}
\@writefile{toc}{\contentsline {section}{\numberline {4.1}Vis\IeC {\~a}o Empresarial}{28}{section.4.1}}
\newlabel{chap:empresaria}{{\M@TitleReference {4.1}{Vis\IeC {\~a}o Empresarial}}{28}{Visão Empresarial}{section.4.1}{}}
\@writefile{toc}{\contentsline {subsection}{\numberline {4.1.1}Monetiza\IeC {\c c}\IeC {\~a}o do projeto}{28}{subsection.4.1.1}}
\BKM@entry{id=26,dest={73656374696F6E2E342E32},srcline={1}}{5669735C3334336F20646120496E666F726D615C3334375C3334336F}
\BKM@entry{id=27,dest={73756273656374696F6E2E342E322E31},srcline={6}}{456C656D656E746F7320646520496E666F726D615C3334375C3334336F20646F2053697374656D61}
\BKM@entry{id=28,dest={73756273656374696F6E2E342E322E32},srcline={25}}{4D616E6970756C615C3334375C3334336F2064617320496E666F726D615C3334375C3336356573}
\@writefile{toc}{\contentsline {section}{\numberline {4.2}Vis\IeC {\~a}o da Informa\IeC {\c c}\IeC {\~a}o}{29}{section.4.2}}
\newlabel{chap:informacao}{{\M@TitleReference {4.2}{Vis\IeC {\~a}o da Informa\IeC {\c c}\IeC {\~a}o}}{29}{Visão da Informação}{section.4.2}{}}
\@writefile{toc}{\contentsline {subsection}{\numberline {4.2.1}Elementos de Informa\IeC {\c c}\IeC {\~a}o do Sistema}{29}{subsection.4.2.1}}
\@writefile{lof}{\contentsline {figure}{\numberline {15}{\ignorespaces Informa\IeC {\c c}\IeC {\~o}es Captadas em cada parte da Arquitetura}}{29}{figure.4.15}}
\newlabel{fig:arquiteturaInformacao}{{\M@TitleReference {15}{Informa\IeC {\c c}\IeC {\~o}es Captadas em cada parte da Arquitetura}}{29}{Informações Captadas em cada parte da Arquitetura}{figure.4.15}{}}
\@writefile{toc}{\contentsline {subsection}{\numberline {4.2.2}Manipula\IeC {\c c}\IeC {\~a}o das Informa\IeC {\c c}\IeC {\~o}es}{29}{subsection.4.2.2}}
\BKM@entry{id=29,dest={73756273656374696F6E2E342E322E33},srcline={43}}{466C75786F2064617320496E666F726D615C3334375C3336356573}
\@writefile{lof}{\contentsline {figure}{\numberline {16}{\ignorespaces Manipula\IeC {\c c}\IeC {\~a}o das Informa\IeC {\c c}\IeC {\~o}es em cada parte da Arquitetura}}{30}{figure.4.16}}
\newlabel{fig:manipulacaoDados}{{\M@TitleReference {16}{Manipula\IeC {\c c}\IeC {\~a}o das Informa\IeC {\c c}\IeC {\~o}es em cada parte da Arquitetura}}{30}{Manipulação das Informações em cada parte da Arquitetura}{figure.4.16}{}}
\@writefile{toc}{\contentsline {subsection}{\numberline {4.2.3}Fluxo das Informa\IeC {\c c}\IeC {\~o}es}{30}{subsection.4.2.3}}
\@writefile{lof}{\contentsline {figure}{\numberline {17}{\ignorespaces Tecnologias Utilizadas para Conex\IeC {\~a}o entre os N\IeC {\'o}s }}{30}{figure.4.17}}
\newlabel{fig:tecnologiasComunicacao}{{\M@TitleReference {17}{Tecnologias Utilizadas para Conex\IeC {\~a}o entre os N\IeC {\'o}s }}{30}{Tecnologias Utilizadas para Conexão entre os Nós }{figure.4.17}{}}
\@writefile{lof}{\contentsline {figure}{\numberline {18}{\ignorespaces Formato de Mensagens Utilizados para Comunica\IeC {\c c}\IeC {\~a}o ponto-a-ponto }}{32}{figure.4.18}}
\newlabel{fig:formatosMensagens}{{\M@TitleReference {18}{Formato de Mensagens Utilizados para Comunica\IeC {\c c}\IeC {\~a}o ponto-a-ponto }}{32}{Formato de Mensagens Utilizados para Comunicação ponto-a-ponto }{figure.4.18}{}}
\BKM@entry{id=30,dest={73656374696F6E2E342E33},srcline={2}}{5669735C3334336F20436F6D7075746163696F6E616C}
\BKM@entry{id=31,dest={73756273656374696F6E2E342E332E31},srcline={5}}{52657175697369746F73}
\BKM@entry{id=32,dest={73756273756273656374696F6E2E342E332E312E31},srcline={10}}{52657175697369746F732046756E63696F6E616973}
\@writefile{toc}{\contentsline {section}{\numberline {4.3}Vis\IeC {\~a}o Computacional}{33}{section.4.3}}
\newlabel{chap:computacao}{{\M@TitleReference {4.3}{Vis\IeC {\~a}o Computacional}}{33}{Visão Computacional}{section.4.3}{}}
\@writefile{toc}{\contentsline {subsection}{\numberline {4.3.1}Requisitos}{33}{subsection.4.3.1}}
\newlabel{sub:comp-req}{{\M@TitleReference {4.3.1}{Requisitos}}{33}{Requisitos}{subsection.4.3.1}{}}
\@writefile{toc}{\contentsline {subsubsection}{\numberline {4.3.1.1}Requisitos Funcionais}{33}{subsubsection.4.3.1.1}}
\newlabel{subs:comp-req-fun}{{\M@TitleReference {4.3.1.1}{Requisitos Funcionais}}{33}{Requisitos Funcionais}{subsubsection.4.3.1.1}{}}
\BKM@entry{id=33,dest={73756273756273656374696F6E2E342E332E312E32},srcline={137}}{52657175697369746F73204E5C3334336F2046756E63696F6E616973}
\@writefile{toc}{\contentsline {subsubsection}{\numberline {4.3.1.2}Requisitos N\IeC {\~a}o Funcionais}{34}{subsubsection.4.3.1.2}}
\newlabel{subs:comp-req-nfun}{{\M@TitleReference {4.3.1.2}{Requisitos N\IeC {\~a}o Funcionais}}{34}{Requisitos Não Funcionais}{subsubsection.4.3.1.2}{}}
\BKM@entry{id=34,dest={73756273656374696F6E2E342E332E32},srcline={185}}{4361736F732064652055736F}
\BKM@entry{id=35,dest={73756273656374696F6E2E342E332E33},srcline={199}}{466C75786F7320646F2073697374656D61}
\@writefile{toc}{\contentsline {subsection}{\numberline {4.3.2}Casos de Uso}{35}{subsection.4.3.2}}
\newlabel{sub:comp-casos-uso}{{\M@TitleReference {4.3.2}{Casos de Uso}}{35}{Casos de Uso}{subsection.4.3.2}{}}
\@writefile{lof}{\contentsline {figure}{\numberline {19}{\ignorespaces Casos de Uso}}{35}{figure.4.19}}
\newlabel{fig:comp-casos-uso}{{\M@TitleReference {19}{Casos de Uso}}{35}{Casos de Uso}{figure.4.19}{}}
\BKM@entry{id=36,dest={73756273756273656374696F6E2E342E332E332E31},srcline={204}}{536F6674776172652064652043617074757261206465204461646F7320646F20526173706265727279}
\@writefile{toc}{\contentsline {subsection}{\numberline {4.3.3}Fluxos do sistema}{36}{subsection.4.3.3}}
\newlabel{sub:comp-fluxos}{{\M@TitleReference {4.3.3}{Fluxos do sistema}}{36}{Fluxos do sistema}{subsection.4.3.3}{}}
\@writefile{toc}{\contentsline {subsubsection}{\numberline {4.3.3.1}Software de Captura de Dados do Raspberry}{36}{subsubsection.4.3.3.1}}
\@writefile{lof}{\contentsline {figure}{\numberline {20}{\ignorespaces Diagramas de Classes do script Python de Coleta de Dados}}{36}{figure.4.20}}
\newlabel{fig:pythonClasses}{{\M@TitleReference {20}{Diagramas de Classes do script Python de Coleta de Dados}}{36}{Diagramas de Classes do script Python de Coleta de Dados}{figure.4.20}{}}
\@writefile{lof}{\contentsline {figure}{\numberline {21}{\ignorespaces Diagramas de Sequ\IeC {\^e}ncia do script Python de Coleta de Dados}}{38}{figure.4.21}}
\newlabel{fig:pythonSequencia}{{\M@TitleReference {21}{Diagramas de Sequ\IeC {\^e}ncia do script Python de Coleta de Dados}}{38}{Diagramas de Sequência do script Python de Coleta de Dados}{figure.4.21}{}}
\BKM@entry{id=37,dest={73656374696F6E2E342E34},srcline={1}}{5669735C3334336F20646120456E67656E68617269612F496E667261657374727574757261}
\BKM@entry{id=38,dest={73756273656374696F6E2E342E342E31},srcline={6}}{417271756974657475726120646F2073697374656D61}
\@writefile{toc}{\contentsline {section}{\numberline {4.4}Vis\IeC {\~a}o da Engenharia/Infraestrutura}{40}{section.4.4}}
\newlabel{sec:engenharia}{{\M@TitleReference {4.4}{Vis\IeC {\~a}o da Engenharia/Infraestrutura}}{40}{Visão da Engenharia/Infraestrutura}{section.4.4}{}}
\@writefile{toc}{\contentsline {subsection}{\numberline {4.4.1}Arquitetura do sistema}{40}{subsection.4.4.1}}
\newlabel{sub:eng-arq}{{\M@TitleReference {4.4.1}{Arquitetura do sistema}}{40}{Arquitetura do sistema}{subsection.4.4.1}{}}
\@writefile{lof}{\contentsline {figure}{\numberline {22}{\ignorespaces Arquitetura geral do sistema}}{40}{figure.4.22}}
\newlabel{fig:arquitetura}{{\M@TitleReference {22}{Arquitetura geral do sistema}}{40}{Arquitetura geral do sistema}{figure.4.22}{}}
\BKM@entry{id=39,dest={73656374696F6E2E342E35},srcline={1}}{5669735C3334336F205465636E6F6C5C33363367696361}
\BKM@entry{id=40,dest={73756273656374696F6E2E342E352E31},srcline={28}}{50726F746F636F6C6F204F42442D4949}
\citation{obd}
\@writefile{toc}{\contentsline {section}{\numberline {4.5}Vis\IeC {\~a}o Tecnol\IeC {\'o}gica}{42}{section.4.5}}
\newlabel{sec:tecnologia}{{\M@TitleReference {4.5}{Vis\IeC {\~a}o Tecnol\IeC {\'o}gica}}{42}{Visão Tecnológica}{section.4.5}{}}
\@writefile{lof}{\contentsline {figure}{\numberline {23}{\ignorespaces Arquitetura geral do sistema}}{42}{figure.4.23}}
\newlabel{fig:arq-tec}{{\M@TitleReference {23}{Arquitetura geral do sistema}}{42}{Arquitetura geral do sistema}{figure.4.23}{}}
\@writefile{toc}{\contentsline {subsection}{\numberline {4.5.1}Protocolo OBD-II}{42}{subsection.4.5.1}}
\newlabel{sub:obd2}{{\M@TitleReference {4.5.1}{Protocolo OBD-II}}{42}{Protocolo OBD-II}{subsection.4.5.1}{}}
\BKM@entry{id=41,dest={73756273756273656374696F6E2E342E352E312E31},srcline={33}}{4F726967656D20646F2050726F746F636F6C6F}
\citation{obd}
\BKM@entry{id=42,dest={73756273756273656374696F6E2E342E352E312E32},srcline={40}}{41646F5C3334375C3334336F20652056617269615C3334375C3336356573206E6F2050726F746F636F6C6F}
\BKM@entry{id=43,dest={73756273656374696F6E2E342E352E32},srcline={46}}{454C4D333237}
\@writefile{toc}{\contentsline {subsubsection}{\numberline {4.5.1.1}Origem do Protocolo}{43}{subsubsection.4.5.1.1}}
\newlabel{sub:obdorigem}{{\M@TitleReference {4.5.1.1}{Origem do Protocolo}}{43}{Origem do Protocolo}{subsubsection.4.5.1.1}{}}
\@writefile{toc}{\contentsline {subsubsection}{\numberline {4.5.1.2}Ado\IeC {\c c}\IeC {\~a}o e Varia\IeC {\c c}\IeC {\~o}es no Protocolo}{43}{subsubsection.4.5.1.2}}
\newlabel{subs:obdovariacoes}{{\M@TitleReference {4.5.1.2}{Ado\IeC {\c c}\IeC {\~a}o e Varia\IeC {\c c}\IeC {\~o}es no Protocolo}}{43}{Adoção e Variações no Protocolo}{subsubsection.4.5.1.2}{}}
\@writefile{toc}{\contentsline {subsection}{\numberline {4.5.2}ELM327}{43}{subsection.4.5.2}}
\newlabel{sub:elm327}{{\M@TitleReference {4.5.2}{ELM327}}{43}{ELM327}{subsection.4.5.2}{}}
\BKM@entry{id=44,dest={73756273656374696F6E2E342E352E33},srcline={61}}{526173706265727279207069}
\citation{rasp}
\@writefile{toc}{\contentsline {subsection}{\numberline {4.5.3}Raspberry pi}{44}{subsection.4.5.3}}
\newlabel{sub:rasp}{{\M@TitleReference {4.5.3}{Raspberry pi}}{44}{Raspberry pi}{subsection.4.5.3}{}}
\BKM@entry{id=45,dest={73756273756273656374696F6E2E342E352E332E31},srcline={76}}{486172647761726520652050657269665C3335317269636F73}
\citation{raspImagem}
\citation{raspImagem}
\citation{raspPinos}
\citation{raspPinos}
\@writefile{toc}{\contentsline {subsubsection}{\numberline {4.5.3.1}Hardware e Perif\IeC {\'e}ricos}{45}{subsubsection.4.5.3.1}}
\@writefile{lof}{\contentsline {figure}{\numberline {24}{\ignorespaces Entrada e sa\IeC {\'\i }das do Raspberry \cite  {raspImagem}}}{45}{figure.4.24}}
\newlabel{fig:layoutRaspberry}{{\M@TitleReference {24}{Entrada e sa\IeC {\'\i }das do Raspberry \cite  {raspImagem}}}{45}{Entrada e saídas do Raspberry \cite {raspImagem}}{figure.4.24}{}}
\BKM@entry{id=46,dest={73756273656374696F6E2E342E352E34},srcline={115}}{507974686F6E}
\citation{python}
\citation{python}
\BKM@entry{id=47,dest={73756273756273656374696F6E2E342E352E342E31},srcline={126}}{486973745C333633726961}
\@writefile{lof}{\contentsline {figure}{\numberline {25}{\ignorespaces Pinos GPIO do Raspberry \cite  {raspPinos}}}{46}{figure.4.25}}
\newlabel{fig:pinosRaspberry}{{\M@TitleReference {25}{Pinos GPIO do Raspberry \cite  {raspPinos}}}{46}{Pinos GPIO do Raspberry \cite {raspPinos}}{figure.4.25}{}}
\@writefile{toc}{\contentsline {subsection}{\numberline {4.5.4}Python}{46}{subsection.4.5.4}}
\newlabel{sub:python}{{\M@TitleReference {4.5.4}{Python}}{46}{Python}{subsection.4.5.4}{}}
\@writefile{lof}{\contentsline {figure}{\numberline {26}{\ignorespaces Logotipo Python \cite  {python}}}{46}{figure.4.26}}
\newlabel{fig:logotipoPython}{{\M@TitleReference {26}{Logotipo Python \cite  {python}}}{46}{Logotipo Python \cite {python}}{figure.4.26}{}}
\citation{pythonHistoria}
\BKM@entry{id=48,dest={73756273756273656374696F6E2E342E352E342E32},srcline={137}}{43617261637465725C333535737469636173206461204C696E67756167656D}
\@writefile{toc}{\contentsline {subsubsection}{\numberline {4.5.4.1}Hist\IeC {\'o}ria}{47}{subsubsection.4.5.4.1}}
\@writefile{toc}{\contentsline {subsubsection}{\numberline {4.5.4.2}Caracter\IeC {\'\i }sticas da Linguagem}{47}{subsubsection.4.5.4.2}}
\citation{pythonFeatures}
\BKM@entry{id=49,dest={73756273656374696F6E2E342E352E35},srcline={157}}{426C7565746F6F7468}
\citation{bluetoothImagem}
\citation{bluetoothImagem}
\BKM@entry{id=50,dest={73756273756273656374696F6E2E342E352E352E31},srcline={169}}{486973745C333633726961}
\@writefile{toc}{\contentsline {subsection}{\numberline {4.5.5}Bluetooth}{48}{subsection.4.5.5}}
\@writefile{lof}{\contentsline {figure}{\numberline {27}{\ignorespaces Logotipo Bluetooth \cite  {bluetoothImagem}}}{48}{figure.4.27}}
\newlabel{fig:LogotipoBluetooth}{{\M@TitleReference {27}{Logotipo Bluetooth \cite  {bluetoothImagem}}}{48}{Logotipo Bluetooth \cite {bluetoothImagem}}{figure.4.27}{}}
\@writefile{toc}{\contentsline {subsubsection}{\numberline {4.5.5.1}Hist\IeC {\'o}ria}{48}{subsubsection.4.5.5.1}}
\citation{bluetoothHistoria}
\BKM@entry{id=51,dest={73756273756273656374696F6E2E342E352E352E32},srcline={193}}{50726F746F636F6C6F205246434F4D4D}
\@writefile{toc}{\contentsline {subsubsection}{\numberline {4.5.5.2}Protocolo RFCOMM}{49}{subsubsection.4.5.5.2}}
\newlabel{subs:rfcomm}{{\M@TitleReference {4.5.5.2}{Protocolo RFCOMM}}{49}{Protocolo RFCOMM}{subsubsection.4.5.5.2}{}}
\citation{rfcomm}
\citation{rfcomm}
\citation{rfcomm}
\citation{rfcomm}
\@writefile{lof}{\contentsline {figure}{\numberline {28}{\ignorespaces RFCOMM Caminho Completo de Comunica\IeC {\c c}\IeC {\~a}o \cite  {rfcomm}}}{50}{figure.4.28}}
\newlabel{fig:caminhoRFCOMM}{{\M@TitleReference {28}{RFCOMM Caminho Completo de Comunica\IeC {\c c}\IeC {\~a}o \cite  {rfcomm}}}{50}{RFCOMM Caminho Completo de Comunicação \cite {rfcomm}}{figure.4.28}{}}
\citation{rfcomm}
\BKM@entry{id=52,dest={73756273656374696F6E2E342E352E36},srcline={228}}{416E64726F6964}
\@writefile{lof}{\contentsline {figure}{\numberline {29}{\ignorespaces RFCOMM Conex\IeC {\~a}o Direta \cite  {rfcomm}}}{51}{figure.4.29}}
\newlabel{fig:conexaoDiretaRFCOMM}{{\M@TitleReference {29}{RFCOMM Conex\IeC {\~a}o Direta \cite  {rfcomm}}}{51}{RFCOMM Conexão Direta \cite {rfcomm}}{figure.4.29}{}}
\@writefile{toc}{\contentsline {subsection}{\numberline {4.5.6}Android}{51}{subsection.4.5.6}}
\newlabel{sub:android}{{\M@TitleReference {4.5.6}{Android}}{51}{Android}{subsection.4.5.6}{}}
\citation{overviewAndroid}
\citation{versoesAndroid}
\citation{versoesAndroid}
\BKM@entry{id=53,dest={73756273656374696F6E2E342E352E37},srcline={250}}{4A617661}
\BKM@entry{id=54,dest={73756273756273656374696F6E2E342E352E372E31},srcline={262}}{486973745C333633726961}
\@writefile{lof}{\contentsline {figure}{\numberline {30}{\ignorespaces Diferentes Vers\IeC {\~o}es do Android ao longo do Tempo \cite  {versoesAndroid}}}{52}{figure.4.30}}
\newlabel{fig:versoesAndroid}{{\M@TitleReference {30}{Diferentes Vers\IeC {\~o}es do Android ao longo do Tempo \cite  {versoesAndroid}}}{52}{Diferentes Versões do Android ao longo do Tempo \cite {versoesAndroid}}{figure.4.30}{}}
\@writefile{toc}{\contentsline {subsection}{\numberline {4.5.7}Java}{52}{subsection.4.5.7}}
\newlabel{sub:java}{{\M@TitleReference {4.5.7}{Java}}{52}{Java}{subsection.4.5.7}{}}
\@writefile{lof}{\contentsline {figure}{\numberline {31}{\ignorespaces Logo da linguagem Java}}{52}{figure.4.31}}
\newlabel{fig:java}{{\M@TitleReference {31}{Logo da linguagem Java}}{52}{Logo da linguagem Java}{figure.4.31}{}}
\BKM@entry{id=55,dest={73756273756273656374696F6E2E342E352E372E32},srcline={270}}{43617261637465725C333535737469636173206461206C696E67756167656D}
\BKM@entry{id=56,dest={73756273656374696F6E2E342E352E38},srcline={278}}{50726F746F636F6C6F2048545450}
\BKM@entry{id=57,dest={73756273756273656374696F6E2E342E352E382E31},srcline={282}}{43617261637465725C333535737469636173}
\@writefile{toc}{\contentsline {subsubsection}{\numberline {4.5.7.1}Hist\IeC {\'o}ria}{53}{subsubsection.4.5.7.1}}
\@writefile{toc}{\contentsline {subsubsection}{\numberline {4.5.7.2}Caracter\IeC {\'\i }sticas da linguagem}{53}{subsubsection.4.5.7.2}}
\@writefile{toc}{\contentsline {subsection}{\numberline {4.5.8}Protocolo HTTP}{53}{subsection.4.5.8}}
\BKM@entry{id=58,dest={73756273656374696F6E2E342E352E39},srcline={297}}{4E6F64654A73}
\BKM@entry{id=59,dest={73756273756273656374696F6E2E342E352E392E31},srcline={308}}{486973745C333633726961}
\@writefile{toc}{\contentsline {subsubsection}{\numberline {4.5.8.1}Caracter\IeC {\'\i }sticas}{54}{subsubsection.4.5.8.1}}
\@writefile{toc}{\contentsline {subsection}{\numberline {4.5.9}NodeJs}{54}{subsection.4.5.9}}
\@writefile{lof}{\contentsline {figure}{\numberline {32}{\ignorespaces Logo do NodeJs}}{54}{figure.4.32}}
\newlabel{fig:nodejs}{{\M@TitleReference {32}{Logo do NodeJs}}{54}{Logo do NodeJs}{figure.4.32}{}}
\@writefile{toc}{\contentsline {subsubsection}{\numberline {4.5.9.1}Hist\IeC {\'o}ria}{54}{subsubsection.4.5.9.1}}
\BKM@entry{id=60,dest={73756273756273656374696F6E2E342E352E392E32},srcline={316}}{43617261637465725C333535737469636173}
\BKM@entry{id=61,dest={73756273656374696F6E2E342E352E3130},srcline={322}}{4A617661536372697074}
\BKM@entry{id=62,dest={73756273756273656374696F6E2E342E352E31302E31},srcline={326}}{486973745C333633726961}
\BKM@entry{id=63,dest={73756273756273656374696F6E2E342E352E31302E32},srcline={334}}{43617261637465725C333535737469636173206461206C696E67756167656D}
\@writefile{toc}{\contentsline {subsubsection}{\numberline {4.5.9.2}Caracter\IeC {\'\i }sticas}{55}{subsubsection.4.5.9.2}}
\@writefile{toc}{\contentsline {subsection}{\numberline {4.5.10}JavaScript}{55}{subsection.4.5.10}}
\@writefile{toc}{\contentsline {subsubsection}{\numberline {4.5.10.1}Hist\IeC {\'o}ria}{55}{subsubsection.4.5.10.1}}
\BKM@entry{id=64,dest={73756273656374696F6E2E342E352E3131},srcline={342}}{4D6F6E676F4442}
\BKM@entry{id=65,dest={73756273756273656374696F6E2E342E352E31312E31},srcline={353}}{43617261637465725C333535737469636173}
\@writefile{toc}{\contentsline {subsubsection}{\numberline {4.5.10.2}Caracter\IeC {\'\i }sticas da linguagem}{56}{subsubsection.4.5.10.2}}
\@writefile{toc}{\contentsline {subsection}{\numberline {4.5.11}MongoDB}{56}{subsection.4.5.11}}
\@writefile{lof}{\contentsline {figure}{\numberline {33}{\ignorespaces Logo do MongoDB}}{56}{figure.4.33}}
\newlabel{fig:mongodb}{{\M@TitleReference {33}{Logo do MongoDB}}{56}{Logo do MongoDB}{figure.4.33}{}}
\@writefile{toc}{\contentsline {subsubsection}{\numberline {4.5.11.1}Caracter\IeC {\'\i }sticas}{56}{subsubsection.4.5.11.1}}
\BKM@entry{id=66,dest={636861707465722E35},srcline={1}}{4D5C333531746F646F73}
\BKM@entry{id=67,dest={73656374696F6E2E352E31},srcline={6}}{4F7267616E697A615C3334375C3334336F206461732054617265666173}
\BKM@entry{id=68,dest={73756273656374696F6E2E352E312E31},srcline={11}}{5472656C6C6F}
\@writefile{toc}{\setlength  {\cftchapterindent }{0em} \setlength  {\cftchapternumwidth }{\cftlastnumwidth }}
\@writefile{toc}{\contentsline {chapter}{\chapternumberline {5}\MakeTextUppercase  {M\IeC {\'e}todos}}{58}{chapter.5}}
\newlabel{chap:metodo}{{\M@TitleReference {5}{\MakeTextUppercase  {M\IeC {\'e}todos}}}{58}{Métodos}{chapter.5}{}}
\@writefile{toc}{\contentsline {section}{\numberline {5.1}Organiza\IeC {\c c}\IeC {\~a}o das Tarefas}{58}{section.5.1}}
\newlabel{sec:organiza\IeC {\c c}\IeC {\~a}o}{{\M@TitleReference {5.1}{Organiza\IeC {\c c}\IeC {\~a}o das Tarefas}}{58}{Organização das Tarefas}{section.5.1}{}}
\@writefile{toc}{\contentsline {subsection}{\numberline {5.1.1}Trello}{58}{subsection.5.1.1}}
\newlabel{sec:trello}{{\M@TitleReference {5.1.1}{Trello}}{58}{Trello}{subsection.5.1.1}{}}
\BKM@entry{id=69,dest={73656374696F6E2E352E32},srcline={34}}{50726F6772616D617320652049444573}
\BKM@entry{id=70,dest={73756273656374696F6E2E352E322E31},srcline={39}}{2052617370626572727920506920}
\@writefile{lof}{\contentsline {figure}{\numberline {34}{\ignorespaces Imagem ilustrativa de uma Board do Trello}}{59}{figure.5.34}}
\newlabel{fig:trello}{{\M@TitleReference {34}{Imagem ilustrativa de uma Board do Trello}}{59}{Imagem ilustrativa de uma Board do Trello}{figure.5.34}{}}
\@writefile{toc}{\contentsline {section}{\numberline {5.2}Programas e IDEs}{59}{section.5.2}}
\newlabel{sec:programas}{{\M@TitleReference {5.2}{Programas e IDEs}}{59}{Programas e IDEs}{section.5.2}{}}
\@writefile{toc}{\contentsline {subsection}{\numberline {5.2.1} Raspberry Pi }{59}{subsection.5.2.1}}
\newlabel{sec:programas-raspberry}{{\M@TitleReference {5.2.1}{ Raspberry Pi }}{59}{Raspberry Pi}{subsection.5.2.1}{}}
\BKM@entry{id=71,dest={73756273656374696F6E2E352E322E32},srcline={57}}{2041706C6963617469766F20416E64726F696420}
\@writefile{lof}{\contentsline {figure}{\numberline {35}{\ignorespaces Interface do programa Sublime Text 2}}{60}{figure.5.35}}
\newlabel{fig:sublime}{{\M@TitleReference {35}{Interface do programa Sublime Text 2}}{60}{Interface do programa Sublime Text 2}{figure.5.35}{}}
\@writefile{toc}{\contentsline {subsection}{\numberline {5.2.2} Aplicativo Android }{60}{subsection.5.2.2}}
\newlabel{programas-android}{{\M@TitleReference {5.2.2}{ Aplicativo Android }}{60}{Aplicativo Android}{subsection.5.2.2}{}}
\BKM@entry{id=72,dest={73756273656374696F6E2E352E322E33},srcline={71}}{204E6F64654A7320}
\@writefile{lof}{\contentsline {figure}{\numberline {36}{\ignorespaces Interface do programa Android Studio 1.3.2}}{61}{figure.5.36}}
\newlabel{fig:androidStudio}{{\M@TitleReference {36}{Interface do programa Android Studio 1.3.2}}{61}{Interface do programa Android Studio 1.3.2}{figure.5.36}{}}
\@writefile{toc}{\contentsline {subsection}{\numberline {5.2.3} NodeJs }{61}{subsection.5.2.3}}
\newlabel{sec:programas-nodejs}{{\M@TitleReference {5.2.3}{ NodeJs }}{61}{NodeJs}{subsection.5.2.3}{}}
\@writefile{lof}{\contentsline {figure}{\numberline {37}{\ignorespaces Interface do editor de texto Atom}}{62}{figure.5.37}}
\newlabel{fig:atom}{{\M@TitleReference {37}{Interface do editor de texto Atom}}{62}{Interface do editor de texto Atom}{figure.5.37}{}}
\BKM@entry{id=73,dest={636861707465722E36},srcline={1}}{526573756C7461646F73206520416E5C3334316C697365}
\BKM@entry{id=74,dest={73656374696F6E2E362E31},srcline={8}}{526173706265727279205069}
\BKM@entry{id=75,dest={73756273656374696F6E2E362E312E31},srcline={13}}{436F6C657461206465204461646F73204F4244}
\@writefile{toc}{\setlength  {\cftchapterindent }{0em} \setlength  {\cftchapternumwidth }{\cftlastnumwidth }}
\@writefile{toc}{\contentsline {chapter}{\chapternumberline {6}\MakeTextUppercase  {Resultados e An\IeC {\'a}lise}}{63}{chapter.6}}
\newlabel{chap:resultados}{{\M@TitleReference {6}{\MakeTextUppercase  {Resultados e An\IeC {\'a}lise}}}{63}{Resultados e Análise}{chapter.6}{}}
\@writefile{toc}{\contentsline {section}{\numberline {6.1}Raspberry Pi}{63}{section.6.1}}
\newlabel{sec:resultados-raspberrypi}{{\M@TitleReference {6.1}{Raspberry Pi}}{63}{Raspberry Pi}{section.6.1}{}}
\@writefile{toc}{\contentsline {subsection}{\numberline {6.1.1}Coleta de Dados OBD}{63}{subsection.6.1.1}}
\@writefile{lof}{\contentsline {figure}{\numberline {38}{\ignorespaces Simulador OBD-II para Windows}}{63}{figure.6.38}}
\newlabel{fig:simulador}{{\M@TitleReference {38}{Simulador OBD-II para Windows}}{63}{Simulador OBD-II para Windows}{figure.6.38}{}}
\@writefile{lof}{\contentsline {figure}{\numberline {39}{\ignorespaces Teste de escrita no serial do Windows}}{64}{figure.6.39}}
\newlabel{fig:serial}{{\M@TitleReference {39}{Teste de escrita no serial do Windows}}{64}{Teste de escrita no serial do Windows}{figure.6.39}{}}
\BKM@entry{id=76,dest={73756273656374696F6E2E362E312E32},srcline={49}}{5465737465204163656C65725C3336346D6574726F}
\@writefile{lof}{\contentsline {figure}{\numberline {40}{\ignorespaces Teste de Obten\IeC {\c c}\IeC {\~a}o de Dados do OBD-II }}{65}{figure.6.40}}
\newlabel{fig:testeOBD}{{\M@TitleReference {40}{Teste de Obten\IeC {\c c}\IeC {\~a}o de Dados do OBD-II }}{65}{Teste de Obtenção de Dados do OBD-II }{figure.6.40}{}}
\@writefile{toc}{\contentsline {subsection}{\numberline {6.1.2}Teste Aceler\IeC {\^o}metro}{65}{subsection.6.1.2}}
\BKM@entry{id=77,dest={73756273656374696F6E2E362E312E33},srcline={64}}{546573746520436F6E65785C3334336F205246434F4D4D20426C7565746F6F7468}
\@writefile{lof}{\contentsline {figure}{\numberline {41}{\ignorespaces Teste de Obten\IeC {\c c}\IeC {\~a}o da Acelera\IeC {\c c}\IeC {\~a}o do Sensor ADXL345 }}{66}{figure.6.41}}
\newlabel{fig:testeAceleracao}{{\M@TitleReference {41}{Teste de Obten\IeC {\c c}\IeC {\~a}o da Acelera\IeC {\c c}\IeC {\~a}o do Sensor ADXL345 }}{66}{Teste de Obtenção da Aceleração do Sensor ADXL345 }{figure.6.41}{}}
\@writefile{toc}{\contentsline {subsection}{\numberline {6.1.3}Teste Conex\IeC {\~a}o RFCOMM Bluetooth}{66}{subsection.6.1.3}}
\@writefile{lof}{\contentsline {figure}{\numberline {42}{\ignorespaces Conex\IeC {\~a}o do Servidor RFCOMM aberta na porta 1}}{66}{figure.6.42}}
\newlabel{fig:conexaoBluetoothAberta}{{\M@TitleReference {42}{Conex\IeC {\~a}o do Servidor RFCOMM aberta na porta 1}}{66}{Conexão do Servidor RFCOMM aberta na porta 1}{figure.6.42}{}}
\@writefile{lof}{\contentsline {figure}{\numberline {43}{\ignorespaces Conex\IeC {\~a}o aceita pelo Servidor RFCOMM na porta 1}}{67}{figure.6.43}}
\newlabel{fig:conexaoBluetoothAceita}{{\M@TitleReference {43}{Conex\IeC {\~a}o aceita pelo Servidor RFCOMM na porta 1}}{67}{Conexão aceita pelo Servidor RFCOMM na porta 1}{figure.6.43}{}}
\BKM@entry{id=78,dest={73656374696F6E2E362E32},srcline={92}}{41706C6963617469766F20416E64726F69643A20436F6D6F20446972696A6F}
\BKM@entry{id=79,dest={73756273656374696F6E2E362E322E31},srcline={105}}{496E74657266616365206465205573755C33343172696F}
\BKM@entry{id=80,dest={73756273756273656374696F6E2E362E322E312E31},srcline={110}}{54656C61207072696E636970616C}
\@writefile{toc}{\contentsline {section}{\numberline {6.2}Aplicativo Android: Como Dirijo}{68}{section.6.2}}
\newlabel{sec:resultados-android}{{\M@TitleReference {6.2}{Aplicativo Android: Como Dirijo}}{68}{Aplicativo Android: Como Dirijo}{section.6.2}{}}
\@writefile{lof}{\contentsline {figure}{\numberline {44}{\ignorespaces \IeC {\'I}cone do aplicativo Como Dirijo}}{68}{figure.6.44}}
\newlabel{fig:iconComoDirijo}{{\M@TitleReference {44}{\IeC {\'I}cone do aplicativo Como Dirijo}}{68}{Ícone do aplicativo Como Dirijo}{figure.6.44}{}}
\@writefile{toc}{\contentsline {subsection}{\numberline {6.2.1}Interface de Usu\IeC {\'a}rio}{68}{subsection.6.2.1}}
\newlabel{subsec:resultados-android-interface-usuario}{{\M@TitleReference {6.2.1}{Interface de Usu\IeC {\'a}rio}}{68}{Interface de Usuário}{subsection.6.2.1}{}}
\@writefile{toc}{\contentsline {subsubsection}{\numberline {6.2.1.1}Tela principal}{68}{subsubsection.6.2.1.1}}
\BKM@entry{id=81,dest={73756273756273656374696F6E2E362E322E312E32},srcline={123}}{56697375616C697A615C3334375C3334336F20646520696E6672615C3334375C333635657320656D2074656D706F207265616C}
\@writefile{lof}{\contentsline {figure}{\numberline {45}{\ignorespaces Layout da tela principal do aplicativo Como Dirijo}}{69}{figure.6.45}}
\newlabel{fig:mainLayout}{{\M@TitleReference {45}{Layout da tela principal do aplicativo Como Dirijo}}{69}{Layout da tela principal do aplicativo Como Dirijo}{figure.6.45}{}}
\@writefile{toc}{\contentsline {subsubsection}{\numberline {6.2.1.2}Visualiza\IeC {\c c}\IeC {\~a}o de infra\IeC {\c c}\IeC {\~o}es em tempo real}{69}{subsubsection.6.2.1.2}}
\citation{100car}
\@writefile{lof}{\contentsline {figure}{\numberline {46}{\ignorespaces Layout da tela de visualiza\IeC {\c c}\IeC {\~a}o de infra\IeC {\c c}\IeC {\~o}es em tempo real}}{70}{figure.6.46}}
\newlabel{fig:telaRota}{{\M@TitleReference {46}{Layout da tela de visualiza\IeC {\c c}\IeC {\~a}o de infra\IeC {\c c}\IeC {\~o}es em tempo real}}{70}{Layout da tela de visualização de infrações em tempo real}{figure.6.46}{}}
\BKM@entry{id=82,dest={73756273756273656374696F6E2E362E322E312E33},srcline={153}}{56697375616C697A615C3334375C3334336F20646F20686973745C3336337269636F}
\@writefile{lof}{\contentsline {figure}{\numberline {47}{\ignorespaces Rota com alguns marcadores e exibi\IeC {\c c}\IeC {\~a}o de um ``Toast''}}{71}{figure.6.47}}
\newlabel{fig:telaRotaToastFrame}{{\M@TitleReference {47}{Rota com alguns marcadores e exibi\IeC {\c c}\IeC {\~a}o de um ``Toast''}}{71}{Rota com alguns marcadores e exibição de um ``Toast''}{figure.6.47}{}}
\@writefile{toc}{\contentsline {subsubsection}{\numberline {6.2.1.3}Visualiza\IeC {\c c}\IeC {\~a}o do hist\IeC {\'o}rico}{71}{subsubsection.6.2.1.3}}
\BKM@entry{id=83,dest={73756273756273656374696F6E2E362E322E312E34},srcline={166}}{56697375616C697A615C3334375C3334336F20646120706F6E7475615C3334375C3334336F206520646574616C68657320646120726F7461}
\@writefile{lof}{\contentsline {figure}{\numberline {48}{\ignorespaces Layout da tela de visualiza\IeC {\c c}\IeC {\~a}o do hist\IeC {\'o}rico de rotas}}{72}{figure.6.48}}
\newlabel{fig:telaHistorico}{{\M@TitleReference {48}{Layout da tela de visualiza\IeC {\c c}\IeC {\~a}o do hist\IeC {\'o}rico de rotas}}{72}{Layout da tela de visualização do histórico de rotas}{figure.6.48}{}}
\@writefile{toc}{\contentsline {subsubsection}{\numberline {6.2.1.4}Visualiza\IeC {\c c}\IeC {\~a}o da pontua\IeC {\c c}\IeC {\~a}o e detalhes da rota}{72}{subsubsection.6.2.1.4}}
\BKM@entry{id=84,dest={73756273656374696F6E2E362E322E32},srcline={187}}{436F6E65785C3334336F20636F6D20526173706265727279205069}
\@writefile{lof}{\contentsline {figure}{\numberline {49}{\ignorespaces Layout da tela de visualiza\IeC {\c c}\IeC {\~a}o de pontua\IeC {\c c}\IeC {\~o}es}}{73}{figure.6.49}}
\newlabel{fig:telaPontuacao}{{\M@TitleReference {49}{Layout da tela de visualiza\IeC {\c c}\IeC {\~a}o de pontua\IeC {\c c}\IeC {\~o}es}}{73}{Layout da tela de visualização de pontuações}{figure.6.49}{}}
\@writefile{toc}{\contentsline {subsection}{\numberline {6.2.2}Conex\IeC {\~a}o com Raspberry Pi}{73}{subsection.6.2.2}}
\newlabel{subsec:resultados-android-raspberrypi}{{\M@TitleReference {6.2.2}{Conex\IeC {\~a}o com Raspberry Pi}}{73}{Conexão com Raspberry Pi}{subsection.6.2.2}{}}
\BKM@entry{id=85,dest={73756273656374696F6E2E362E322E33},srcline={202}}{436F6E65785C3334336F20636F6D207365727669646F72}
\@writefile{toc}{\contentsline {subsection}{\numberline {6.2.3}Conex\IeC {\~a}o com servidor}{74}{subsection.6.2.3}}
\newlabel{subsec:resultados-android-servidor}{{\M@TitleReference {6.2.3}{Conex\IeC {\~a}o com servidor}}{74}{Conexão com servidor}{subsection.6.2.3}{}}
\BKM@entry{id=86,dest={73656374696F6E2E362E33},srcline={226}}{5365727669646F72204E6F64654A73}
\BKM@entry{id=87,dest={73756273656374696F6E2E362E332E31},srcline={231}}{41636573736F}
\@writefile{toc}{\contentsline {section}{\numberline {6.3}Servidor NodeJs}{75}{section.6.3}}
\newlabel{sec:resultados-servidor}{{\M@TitleReference {6.3}{Servidor NodeJs}}{75}{Servidor NodeJs}{section.6.3}{}}
\@writefile{toc}{\contentsline {subsection}{\numberline {6.3.1}Acesso}{75}{subsection.6.3.1}}
\newlabel{subsec:resultados-servidor-acesso}{{\M@TitleReference {6.3.1}{Acesso}}{75}{Acesso}{subsection.6.3.1}{}}
\@writefile{lof}{\contentsline {figure}{\numberline {50}{\ignorespaces P\IeC {\'a}gina auxiliar de verifica\IeC {\c c}\IeC {\~a}o dos usu\IeC {\'a}rios cadastrados}}{75}{figure.6.50}}
\newlabel{fig:serverUsersView}{{\M@TitleReference {50}{P\IeC {\'a}gina auxiliar de verifica\IeC {\c c}\IeC {\~a}o dos usu\IeC {\'a}rios cadastrados}}{75}{Página auxiliar de verificação dos usuários cadastrados}{figure.6.50}{}}
\@writefile{lof}{\contentsline {figure}{\numberline {51}{\ignorespaces Formato do objeto JSON enviado para a cria\IeC {\c c}\IeC {\~a}o de usu\IeC {\'a}rios}}{76}{figure.6.51}}
\newlabel{fig:jsonUser}{{\M@TitleReference {51}{Formato do objeto JSON enviado para a cria\IeC {\c c}\IeC {\~a}o de usu\IeC {\'a}rios}}{76}{Formato do objeto JSON enviado para a criação de usuários}{figure.6.51}{}}
\@writefile{lof}{\contentsline {figure}{\numberline {52}{\ignorespaces P\IeC {\'a}gina auxiliar de verifica\IeC {\c c}\IeC {\~a}o das rotas criadas}}{77}{figure.6.52}}
\newlabel{fig:serverRoutesView}{{\M@TitleReference {52}{P\IeC {\'a}gina auxiliar de verifica\IeC {\c c}\IeC {\~a}o das rotas criadas}}{77}{Página auxiliar de verificação das rotas criadas}{figure.6.52}{}}
\@writefile{lof}{\contentsline {figure}{\numberline {53}{\ignorespaces Formato do objeto JSON enviado para a cria\IeC {\c c}\IeC {\~a}o de rotas}}{77}{figure.6.53}}
\newlabel{fig:jsonRoute}{{\M@TitleReference {53}{Formato do objeto JSON enviado para a cria\IeC {\c c}\IeC {\~a}o de rotas}}{77}{Formato do objeto JSON enviado para a criação de rotas}{figure.6.53}{}}
\BKM@entry{id=88,dest={73756273656374696F6E2E362E332E32},srcline={319}}{506F6E7475615C3334375C3334336F}
\@writefile{toc}{\contentsline {subsection}{\numberline {6.3.2}Pontua\IeC {\c c}\IeC {\~a}o}{78}{subsection.6.3.2}}
\newlabel{subsec:resultados-servidor-pontuacao}{{\M@TitleReference {6.3.2}{Pontua\IeC {\c c}\IeC {\~a}o}}{78}{Pontuação}{subsection.6.3.2}{}}
\BKM@entry{id=89,dest={73656374696F6E2E362E34},srcline={343}}{42616E636F206465206461646F73204D6F6E676F4442}
\BKM@entry{id=90,dest={73756273656374696F6E2E362E342E31},srcline={348}}{436F6C655C3334375C3336356573}
\@writefile{toc}{\contentsline {section}{\numberline {6.4}Banco de dados MongoDB}{80}{section.6.4}}
\newlabel{sec:resultados-bancodados}{{\M@TitleReference {6.4}{Banco de dados MongoDB}}{80}{Banco de dados MongoDB}{section.6.4}{}}
\@writefile{toc}{\contentsline {subsection}{\numberline {6.4.1}Cole\IeC {\c c}\IeC {\~o}es}{80}{subsection.6.4.1}}
\newlabel{subsec:resultados-bancodados-colecoes}{{\M@TitleReference {6.4.1}{Cole\IeC {\c c}\IeC {\~o}es}}{80}{Coleções}{subsection.6.4.1}{}}
\@writefile{lof}{\contentsline {figure}{\numberline {54}{\ignorespaces Esquema dos usu\IeC {\'a}rios}}{80}{figure.6.54}}
\newlabel{fig:mongoUserSchema}{{\M@TitleReference {54}{Esquema dos usu\IeC {\'a}rios}}{80}{Esquema dos usuários}{figure.6.54}{}}
\@writefile{lof}{\contentsline {figure}{\numberline {55}{\ignorespaces Esquema das rotas}}{81}{figure.6.55}}
\newlabel{fig:mongoRouteSchema}{{\M@TitleReference {55}{Esquema das rotas}}{81}{Esquema das rotas}{figure.6.55}{}}
\BKM@entry{id=91,dest={73656374696F6E2E362E35},srcline={385}}{496E74656772615C3334375C3334336F}
\@writefile{toc}{\contentsline {section}{\numberline {6.5}Integra\IeC {\c c}\IeC {\~a}o}{82}{section.6.5}}
\newlabel{sec:resultados-integracao}{{\M@TitleReference {6.5}{Integra\IeC {\c c}\IeC {\~a}o}}{82}{Integração}{section.6.5}{}}
\BKM@entry{id=92,dest={636861707465722E37},srcline={1}}{436F6E636C75735C3334336F}
\@writefile{toc}{\setlength  {\cftchapterindent }{0em} \setlength  {\cftchapternumwidth }{\cftlastnumwidth }}
\@writefile{toc}{\contentsline {chapter}{\chapternumberline {7}\MakeTextUppercase  {Conclus\IeC {\~a}o}}{83}{chapter.7}}
\newlabel{chap:conclusao}{{\M@TitleReference {7}{\MakeTextUppercase  {Conclus\IeC {\~a}o}}}{83}{Conclusão}{chapter.7}{}}
\bibstyle{abnt}
\bibdata{abntex2-options,references}
\@writefile{toc}{\vspace  {\cftbeforechapterskip }}
\BKM@entry{id=93,dest={73656374696F6E2A2E3132},srcline={3}}{52656665725C3335326E63696173}
\bibcite{overviewAndroid}{{ Android Developers} 2015}
\bibciteEXPL{overviewAndroid}{{ Android Developers}}
\bibciteIMPL{overviewAndroid}{{ Android Developers}}
\bibciteYEAR{overviewAndroid}{2015}
\bibcite{pythonFeatures}{{ Ibiblio} 2015}
\bibciteEXPL{pythonFeatures}{{ Ibiblio}}
\bibciteIMPL{pythonFeatures}{{ Ibiblio}}
\bibciteYEAR{pythonFeatures}{2015}
\bibcite{versoesAndroid}{{ IbnLive} 2015}
\bibciteEXPL{versoesAndroid}{{ IbnLive}}
\bibciteIMPL{versoesAndroid}{{ IbnLive}}
\bibciteYEAR{versoesAndroid}{2015}
\bibcite{pythonHistoria}{{ Python.org} 2015}
\bibciteEXPL{pythonHistoria}{{ Python.org}}
\bibciteIMPL{pythonHistoria}{{ Python.org}}
\bibciteYEAR{pythonHistoria}{2015a}
\bibcite{python}{{ Python.org} 2015}
\bibciteEXPL{python}{{ Python.org}}
\bibciteIMPL{python}{{ Python.org}}
\bibciteYEAR{python}{2015b}
\bibcite{obdArtigo}{Akshaykumar, Manjari e Srinivas 2015}
\bibciteEXPL{obdArtigo}{Akshaykumar, Manjari e Srinivas}
\bibciteIMPL{obdArtigo}{AKSHAYKUMAR; MANJARI; SRINIVAS}
\bibciteYEAR{obdArtigo}{2015}
\bibcite{rfcomm}{{Bluetooth Development Portal} 2015}
\bibciteEXPL{rfcomm}{{Bluetooth Development Portal}}
\bibciteIMPL{rfcomm}{{Bluetooth Development Portal}}
\bibciteYEAR{rfcomm}{2015}
\bibcite{cobli}{Coblie 2015}
\bibciteEXPL{cobli}{Coblie}
\bibciteIMPL{cobli}{COBLIE}
\bibciteYEAR{cobli}{2015}
\bibcite{100car}{Dingus et al. 2006}
\bibciteEXPL{100car}{Dingus et al.}
\bibciteIMPL{100car}{DINGUS et al.}
\bibciteYEAR{100car}{2006}
\bibcite{bluetoothHistoria}{{Ericsson History } 2015}
\bibciteEXPL{bluetoothHistoria}{{Ericsson History }}
\bibciteIMPL{bluetoothHistoria}{{Ericsson History }}
\bibciteYEAR{bluetoothHistoria}{2015}
\bibcite{bluetoothImagem}{{Learn Sparkfun } 2015}
\bibciteEXPL{bluetoothImagem}{{Learn Sparkfun }}
\bibciteIMPL{bluetoothImagem}{{Learn Sparkfun }}
\bibciteYEAR{bluetoothImagem}{2015}
\bibcite{obd}{{OBD-II Background Information } 2015}
\bibciteEXPL{obd}{{OBD-II Background Information }}
\bibciteIMPL{obd}{{OBD-II Background Information }}
\bibciteYEAR{obd}{2015}
\bibcite{raspImagem}{{PCMag.com} 2015}
\bibciteEXPL{raspImagem}{{PCMag.com}}
\bibciteIMPL{raspImagem}{{PCMag.com}}
\bibciteYEAR{raspImagem}{2015}
\bibcite{rasp}{{Raspberry Foundation } 2015}
\bibciteEXPL{rasp}{{Raspberry Foundation }}
\bibciteIMPL{rasp}{{Raspberry Foundation }}
\bibciteYEAR{rasp}{2015}
\bibcite{raspPinos}{{Super pi Boy} 2015}
\bibciteEXPL{raspPinos}{{Super pi Boy}}
\bibciteIMPL{raspPinos}{{Super pi Boy}}
\bibciteYEAR{raspPinos}{2015}
\bibcite{howdriving}{Vobis 2012}
\bibciteEXPL{howdriving}{Vobis}
\bibciteIMPL{howdriving}{VOBIS}
\bibciteYEAR{howdriving}{2012}
\@writefile{toc}{\setlength  {\cftchapterindent }{\cftlastnumwidth } \setlength  {\cftchapternumwidth }{2em}}
\@writefile{toc}{\contentsline {chapter}{\uppercase {Refer\^encias}}{85}{section*.12}}
\newlabel{LastPage}{{}{86}{}{page.86}{}}
\xdef\lastpage@lastpage{86}
\xdef\lastpage@lastpageHy{86}
\memsetcounter{lastsheet}{87}
\memsetcounter{lastpage}{86}
